{
  "categorization": {
    "type": "APPLICATION",
    "category": "Communication"
  },
  "description": {
    "texts": {
      "title": "Agenda",
      "features": [
        "Simple"
      ],
      "short-description": "Busqueda en tiempo real de contactos",
      "full-description": "Buscar los contactos de la agenda en tiempo real, ver los datos almacenados",
      "keywords": "a,c,s",
      "recent-changes": "",
      "privacy-policy": "",
      "eula": ""
    },
    "images": {
      "screenshots": [],
      "app-icon-small": "../../../../../Pictures/iunnamed.png",
      "app-icon": "../../../../../Pictures/unnamed.png",
      "small-promo": "",
      "large-promo": ""
    },
    "videos": {
      "video-url": ""
    }
  },
  "packages": {
    "zip-file": "",
    "apk-file": "",
    "secondary-apk-file": "",
    "zip-xdk-compliant": false
  },
  "support": {
    "email": "magallegos@gmail.com",
    "website": ""
  },
  "testing-instructions": "",
  "description-es_la": {
    "texts": {
      "title": "Agenda",
      "features": [
        ""
      ],
      "short-description": "",
      "full-description": "",
      "keywords": "",
      "recent-changes": "",
      "privacy-policy": "",
      "eula": ""
    },
    "images": {
      "screenshots": [],
      "app-icon-small": "",
      "app-icon": "",
      "small-promo": "",
      "large-promo": ""
    },
    "videos": {
      "video-url": ""
    }
  }
}